<?xml version="1.0" encoding="utf-8"?>
<!-- Generator: Adobe Illustrator 17.1.0, SVG Export Plug-In . SVG Version: 6.00 Build 0)  -->
<!DOCTYPE svg PUBLIC "-//W3C//DTD SVG 1.1//EN" "http://www.w3.org/Graphics/SVG/1.1/DTD/svg11.dtd">
<svg version="1.1" id="Layer_1" xmlns="http://www.w3.org/2000/svg" xmlns:xlink="http://www.w3.org/1999/xlink" x="0px" y="0px"
	 viewBox="0 0 80 40" enable-background="new 0 0 80 40" xml:space="preserve">
<g id="vissza">
	<g>
		<g>
			<path fill="#E1B595" d="M11.6,8.6c-2,2-2.3,4.2-3,8.2C8.2,18.9,6.3,20,6.3,20s2.4-0.2,3.7-2.5c1-1.6,0.5-3.1,2.7-6.3
				c2.3-3.3,3.5-3.6,3.5-3.6s-0.8-0.1-1.7-0.1C13.6,7.6,12.4,7.8,11.6,8.6z"/>
			<path fill="#E1B595" d="M8.6,23.2c0.7,4,1,6.2,3,8.2c0.8,0.8,1.9,1,2.9,1.1c1,0.1,1.7-0.1,1.7-0.1s-1.3-0.4-3.5-3.6
				c-2.2-3.2-1.8-4.7-2.7-6.3C8.7,20.2,6.3,20,6.3,20S8.2,21.1,8.6,23.2z"/>
		</g>
	</g>
	<g>
		<path fill="#E1B595" d="M26.3,27.5c-0.5-0.9-0.9-1.7-1.3-2.6c-0.4-0.9-0.8-1.7-1.2-2.6c-0.4-0.9-0.8-1.7-1.2-2.6
			c-0.4-0.9-0.8-1.7-1.3-2.6h1.5c0.5,1,0.9,1.9,1.3,2.6c0.3,0.7,0.6,1.4,0.9,2c0.3,0.6,0.5,1.2,0.7,1.7c0.2,0.5,0.4,1,0.7,1.6
			c0.2-0.5,0.4-1,0.7-1.6s0.4-1.1,0.7-1.7c0.3-0.6,0.6-1.3,0.9-2c0.3-0.7,0.8-1.6,1.3-2.6h1.5c-0.9,1.8-1.7,3.5-2.5,5.2
			C28,24,27.2,25.7,26.3,27.5z"/>
		<path fill="#E1B595" d="M32.9,13.5c0-0.3,0.1-0.5,0.3-0.7c0.2-0.2,0.4-0.3,0.7-0.3c0.2,0,0.5,0.1,0.7,0.3c0.2,0.2,0.3,0.4,0.3,0.7
			c0,0.3-0.1,0.5-0.3,0.7c-0.2,0.2-0.4,0.3-0.7,0.3c-0.2,0-0.5-0.1-0.7-0.3C33,14,32.9,13.8,32.9,13.5z M34.6,26.9h-1.4v-9.9h1.4
			V26.9z"/>
		<path fill="#E1B595" d="M43.1,18l-0.7,1c-0.1-0.2-0.4-0.3-0.8-0.5c-0.4-0.2-0.8-0.2-1.2-0.2c-0.2,0-0.3,0-0.5,0.1
			c-0.2,0-0.4,0.1-0.5,0.2c-0.2,0.1-0.3,0.2-0.4,0.4s-0.2,0.4-0.2,0.6c0,0.4,0.1,0.7,0.3,0.9c0.2,0.2,0.5,0.4,0.9,0.6
			c0.3,0.2,0.7,0.3,1.1,0.5c0.4,0.1,0.8,0.3,1.1,0.5c0.3,0.2,0.6,0.5,0.9,0.8c0.2,0.3,0.3,0.8,0.3,1.3c0,0.8-0.3,1.5-0.8,2.1
			c-0.6,0.6-1.4,0.8-2.4,0.8c-0.6,0-1.1-0.1-1.7-0.3c-0.6-0.2-1.1-0.5-1.4-0.9c0.1-0.1,0.1-0.2,0.2-0.3c0.1-0.1,0.2-0.2,0.3-0.3
			c0.1-0.1,0.2-0.2,0.2-0.3s0.1-0.1,0.1-0.1c0,0.1,0.2,0.2,0.3,0.3c0.2,0.1,0.4,0.2,0.6,0.3c0.2,0.1,0.4,0.2,0.7,0.2
			c0.2,0.1,0.5,0.1,0.7,0.1c0.2,0,0.4,0,0.6-0.1c0.2-0.1,0.4-0.2,0.6-0.3c0.2-0.1,0.3-0.3,0.5-0.5c0.1-0.2,0.2-0.4,0.2-0.7
			c0-0.4-0.1-0.7-0.3-0.9c-0.2-0.2-0.5-0.4-0.9-0.6c-0.3-0.2-0.7-0.3-1.1-0.5c-0.4-0.1-0.8-0.3-1.1-0.5c-0.3-0.2-0.6-0.5-0.9-0.8
			s-0.3-0.8-0.3-1.3c0-0.5,0.1-0.9,0.3-1.2c0.2-0.3,0.4-0.6,0.7-0.8c0.3-0.2,0.6-0.4,0.9-0.5c0.4-0.1,0.7-0.1,1-0.1
			c0.4,0,0.9,0.1,1.4,0.3C42.3,17.3,42.7,17.6,43.1,18z"/>
		<path fill="#E1B595" d="M51.3,18l-0.7,1c-0.1-0.2-0.4-0.3-0.8-0.5c-0.4-0.2-0.8-0.2-1.2-0.2c-0.2,0-0.3,0-0.5,0.1
			c-0.2,0-0.4,0.1-0.5,0.2c-0.2,0.1-0.3,0.2-0.4,0.4S47,19.3,47,19.6c0,0.4,0.1,0.7,0.3,0.9c0.2,0.2,0.5,0.4,0.9,0.6
			c0.3,0.2,0.7,0.3,1.1,0.5c0.4,0.1,0.8,0.3,1.1,0.5c0.3,0.2,0.6,0.5,0.9,0.8c0.2,0.3,0.3,0.8,0.3,1.3c0,0.8-0.3,1.5-0.8,2.1
			c-0.6,0.6-1.4,0.8-2.4,0.8c-0.6,0-1.1-0.1-1.7-0.3c-0.6-0.2-1.1-0.5-1.4-0.9c0.1-0.1,0.1-0.2,0.2-0.3c0.1-0.1,0.2-0.2,0.3-0.3
			c0.1-0.1,0.2-0.2,0.2-0.3s0.1-0.1,0.1-0.1c0,0.1,0.2,0.2,0.3,0.3c0.2,0.1,0.4,0.2,0.6,0.3c0.2,0.1,0.4,0.2,0.7,0.2
			c0.2,0.1,0.5,0.1,0.7,0.1c0.2,0,0.4,0,0.6-0.1c0.2-0.1,0.4-0.2,0.6-0.3c0.2-0.1,0.3-0.3,0.5-0.5c0.1-0.2,0.2-0.4,0.2-0.7
			c0-0.4-0.1-0.7-0.3-0.9c-0.2-0.2-0.5-0.4-0.9-0.6c-0.3-0.2-0.7-0.3-1.1-0.5c-0.4-0.1-0.8-0.3-1.1-0.5c-0.3-0.2-0.6-0.5-0.9-0.8
			s-0.3-0.8-0.3-1.3c0-0.5,0.1-0.9,0.3-1.2c0.2-0.3,0.4-0.6,0.7-0.8c0.3-0.2,0.6-0.4,0.9-0.5c0.4-0.1,0.7-0.1,1-0.1
			c0.4,0,0.9,0.1,1.4,0.3C50.5,17.3,50.9,17.6,51.3,18z"/>
		<path fill="#E1B595" d="M61.7,26.9h-8.5l6.1-8.7h-4.2c-0.5,0-1-0.1-1.3-0.4c-0.3-0.2-0.5-0.6-0.5-1.1v-0.7h1.2v0.3
			c0,0.2,0.1,0.4,0.2,0.5c0.1,0.1,0.3,0.1,0.6,0.1h6.4l-6,8.5h5.9V26.9z"/>
		<path fill="#E1B595" d="M63.3,22c0-0.7,0.1-1.4,0.4-2c0.3-0.6,0.6-1.2,1.1-1.7c0.5-0.5,1-0.8,1.6-1.1c0.6-0.3,1.3-0.4,2-0.4
			c0.5,0,1,0.1,1.4,0.2c0.4,0.1,0.8,0.3,1.1,0.5c0.3,0.2,0.6,0.5,0.8,0.7c0.2,0.3,0.4,0.5,0.5,0.8l0.1-2h1.3v9.9h-1.4v-1
			c0-0.2,0-0.4,0-0.5c0-0.2,0-0.3,0-0.5c-0.1,0.3-0.3,0.5-0.5,0.8c-0.2,0.3-0.5,0.5-0.8,0.7c-0.3,0.2-0.7,0.4-1.1,0.5
			c-0.4,0.1-0.9,0.2-1.4,0.2c-0.7,0-1.4-0.1-2.1-0.4c-0.6-0.3-1.2-0.6-1.6-1.1c-0.5-0.5-0.8-1-1.1-1.6C63.4,23.4,63.3,22.7,63.3,22z
			 M64.7,22c0,0.5,0.1,1,0.3,1.5c0.2,0.5,0.5,0.9,0.8,1.2s0.8,0.6,1.2,0.8c0.5,0.2,1,0.3,1.5,0.3s1-0.1,1.5-0.3
			c0.5-0.2,0.9-0.5,1.2-0.8s0.6-0.7,0.8-1.2c0.2-0.5,0.3-1,0.3-1.5c0-0.5-0.1-1-0.3-1.5c-0.2-0.5-0.5-0.9-0.8-1.2
			c-0.3-0.3-0.8-0.6-1.2-0.8c-0.5-0.2-1-0.3-1.5-0.3s-1,0.1-1.5,0.3c-0.5,0.2-0.9,0.5-1.2,0.8c-0.3,0.3-0.6,0.7-0.8,1.2
			C64.8,20.9,64.7,21.4,64.7,22z"/>
	</g>
</g>
</svg>
