
[{
    "slug" : "molnar-judit",
    "name": "Molnár Judit",
    "email":"fom@fommefatale.hu",
    "tel":"+3620 123 45 67",
    "img":"./dist/img/molnar.jpg",
    "quote":"Önmegvalósítás női vezetőként az üzletben = A siker egyik fontos kulcsa",
    "bodyText":"Molnár Judit vagyok, marketing és értékesítési vezető, business development manager. Széleskörű tapasztalataimat 10 év alattMagyarország két legnagyobb Retailer vállalatánál, a MOL-nál ésa TESCO-nál szereztem, az értékesítés és a marketing területén betöltött magyarés nemzetközi pozíciókban. 2012-ben, sok év középvezetői és vezetői szerepbeneltöltött idő után, kiszállva a nagyvállalati szektorból saját vállalkozást alapítottam,amely a mai napra több száz millió forint árbevételű céggé nőtte ki magát, és 15embernek ad munkát. Az elmúlt években ügyvezetésem alatt számos magyar ésnemzetközi promóciós és innovációs versenyt nyertünk az in-store marketing ésa média területén. Az évek alatt elsajátított ismereteimet és  felhalmozott tudásomata felnövekvő generációval is megosztom. Évek óta meghívott szakértőkéntrendszeresen tartok előadásokat marketing témakörben a Budapesti GazdaságiFőiskolán és a Budapesti Corvinus Egyetemen. Megízlelve a sikert és a vállalkozóivilágot, úgy döntöttem, hogy más területen is kamatoztatni fogom a megszer-zett tapasztalatokat, így 2015-ben 3 új vállalkozás indul az irányításom alatt.Egy speciális tréning keretei között vezető és TOP menedzser pozícióban dolgozóhölgyek részére szeretném átadni a business management területén mindazta tudást és hasznos praktikákat, amelyek engem sikerre vittek az üzleti életben,miközben egy gyönyörű kislány boldog édesanyja is vagyok. Lesz szó többek közöttolyan nagy női vezetőkről, akiktől érdemes tanulni, érintem a női vezetés mindennapikérdéseit, mint delegálás, időgazdálkodás (time management), tárgyalástechnika,valamint beszélni fogok a mentorálás kérdéséről, a nehézségekről és buktatókrólnapjaink férfiakkal teli világában.",
    "underImage":"./dist/img/molnar-big.jpg",
    "sign":"./dist/img/sign.svg"
  },
  {
    "slug" : "obermayer-nora",
    "name": "Dr. Obermayer Nóra",
    "email":"fom@fommefatale.hu",
    "tel":"+3620 123 45 67",
    "img":"./dist/img/obermayer.jpg",
    "quote":"A tudás értéke annak megosztásában rejlik",
    "bodyText":"Obermayer Nóra vagyok, tudásmenedzsment szakértő és facilitator. 2001 óta foglalkozom szervezési és vezetési tevékenységgel menedzser-ként, divízióvezetőként, ügyvezetőként, továbbá felnőttképzési, tanács-adási, vezetőfejlesztési feladatokat látok el, mint egyetemi adjunktus és tréner.Gazdálkodás- és szervezéstudományok területén 2008-ban szereztem PhD, doktorifokozatot tudásmenedzsment és szervezeti kultúra témakörben. Hazai és nemzet-közi kutatásokban veszek részt, konferenciákon és külföldi egyetemeken tartokKutatásaim alapján a szervezetek sikerességének egyik kulcsa a folyamatosanmegújuló tudás hatékony kezelésének képességében rejlik. Az alapvető tudás azemberek fejében van, ugyanakkor kritikus jelentőséggel bír, hogy ez a tudás a szer-vezet rendszereinek és kultúrájának részévé váljon. A menedzsmentnek éppen ezértkiemelt figyelmet kell fordítania a tudás menedzselésére és a munkatársak közöttielőadást, workshopot.tudás megosztásának támogatására.Ezen kihívás teljesítéséhez tapasztalataimra, tudásomra és sikereimre építve nőiközép- és felsővezetők számára olyan programcsomagot állítottam össze, amelya tudásmegosztásra való nyitottság, a coaching szemléletű vezetés, az asszertívkommunikációs készség, az érzelmi intelligencia tudatos alkalmazása és a személyes márkaépítés, mint kulcskompetenciák fejlesztését helyezi a középpontba.",
    "underImage":"./dist/img/obermayer-big.jpg",
    "sign":"./dist/img/sign.svg"
  }]
