<?xml version="1.0" encoding="utf-8"?>
<!-- Generator: Adobe Illustrator 17.0.0, SVG Export Plug-In . SVG Version: 6.00 Build 0)  -->
<!DOCTYPE svg PUBLIC "-//W3C//DTD SVG 1.1//EN" "http://www.w3.org/Graphics/SVG/1.1/DTD/svg11.dtd">
<svg version="1.1" id="Layer_1" xmlns="http://www.w3.org/2000/svg" xmlns:xlink="http://www.w3.org/1999/xlink" x="0px" y="0px"
	 width="250px" height="100px" viewBox="0 0 250 100" enable-background="new 0 0 250 100" xml:space="preserve">
<path fill="#E1B595" d="M159.413,47.747c-0.38-0.238-0.812-0.262-1.203-0.228c-0.791,0.085-1.541,0.381-2.29,0.752
	c-0.747,0.377-1.489,0.847-2.217,1.417c-0.717,0.58-1.419,1.206-2.125,1.904c-1.415,1.384-2.817,3.007-4.179,4.837
	c-1.449,1.939-2.854,4.115-4.2,6.486c-0.054-0.065-0.112-0.128-0.174-0.187c-0.272-0.246-0.605-0.417-0.882-0.49
	c-0.578-0.157-0.958-0.097-1.299-0.057c-0.661,0.108-1.144,0.293-1.603,0.459l-0.615,0.23c-0.077,0.026-0.295,0.105-0.446,0.176
	c-0.159,0.074-0.309,0.155-0.445,0.238c-0.548,0.335-0.95,0.702-1.299,1.012c-0.032,0.028-0.06,0.053-0.091,0.081
	c-0.153-0.197-0.252-0.389-0.303-0.584c-0.11-0.422-0.024-0.954,0.314-1.69l0.154-0.353l0.056-0.147
	c0.024-0.091,0.039-0.061,0.097-0.384c-0.011-0.584,0.115,0.309-0.081-0.814c-0.056-0.648-1.407-1.2-1.599-1.015
	c-0.354,0.039-0.462,0.106-0.567,0.145c-0.108,0.047-0.159,0.077-0.224,0.112c-0.107,0.061-0.186,0.114-0.254,0.16
	c-0.137,0.094-0.244,0.175-0.347,0.254l-1.101,0.876c-0.351,0.278-0.7,0.546-1.051,0.802l-0.529,0.374l-0.334,0.236l-0.324,0.255
	c-0.802,0.668-1.443,1.304-2.112,1.895c-0.655,0.584-1.324,1.137-1.932,1.479c-0.294,0.168-0.578,0.272-0.681,0.276
	c-0.018,0.002-0.021,0.002-0.027,0.002c-0.028-0.022-0.094-0.109-0.143-0.195c-0.012-0.026-0.011-0.01-0.043-0.079l-0.038-0.078
	c-0.007-0.014-0.01-0.021-0.012-0.026c0.002,0.003,0.003,0.007,0.003,0.004l-0.037-0.102c-0.044-0.167-0.062-0.45-0.015-0.781
	c0.087-0.666,0.361-1.455,0.698-2.22c0.34-0.772,0.749-1.545,1.189-2.309c0.886-1.532,1.893-3.022,2.931-4.525l0.787-1.154
	c0.134-0.202,0.266-0.402,0.412-0.646c0.074-0.128,0.146-0.241,0.256-0.498c0.026-0.063,0.067-0.167,0.102-0.322
	c-0.151-0.202,0.584-0.41-0.752-1.696c-0.964-0.348-1.03-0.097-1.046-0.152c-0.088,0.015-0.168,0.036-0.245,0.06
	c-0.624,0.215-0.86,0.464-1.093,0.644c-0.224,0.191-0.404,0.364-0.58,0.535l-0.984,0.994c-2.524,2.604-5.083,5.1-7.676,7.537
	c-1.262,1.195-2.55,2.297-3.912,3.111c-0.674,0.4-1.369,0.72-2,0.858c-0.64,0.135-1.127,0.075-1.512-0.161
	c-0.393-0.238-0.768-0.743-1.037-1.386c-0.272-0.64-0.452-1.385-0.568-2.147c-0.032-0.216-0.049-0.437-0.072-0.656
	c0.505-0.525,1.009-1.059,1.51-1.61c0.776-0.894,1.616-1.74,2.421-2.666c0.807-0.916,1.602-1.868,2.385-2.851
	c3.128-3.932,6.099-8.349,8.669-13.196c2.573-4.84,4.725-10.132,6.1-15.734c0.702-2.778,1.32-5.673,1.12-8.621
	c-0.1-2.467-1.275-4.876-3.138-6.523c0.54-0.936,1.071-1.817,1.595-2.616c0.44-0.666,0.877-1.286,1.332-1.807
	c0.227-0.254,0.466-0.501,0.693-0.63c0.119-0.067,0.184-0.064,0.186-0.059c0.027,0.002,0.095,0.115,0.124,0.239
	c0.12,0.534,0.064,1.136,0.02,1.649c-0.052,0.523-0.125,0.999-0.196,1.423c-0.145,0.85-0.287,1.498-0.384,1.934
	c-0.102,0.435-0.155,0.659-0.155,0.659l-0.001,0.005l0.062,0.103l0.106-0.061c0,0,0.06-0.224,0.176-0.658
	c0.111-0.435,0.273-1.081,0.446-1.932c0.085-0.426,0.174-0.904,0.243-1.435c0.058-0.532,0.146-1.116,0.027-1.766
	c-0.04-0.157-0.09-0.341-0.263-0.467c-0.188-0.125-0.413-0.057-0.564,0.023c-0.32,0.172-0.572,0.427-0.822,0.691
	c-0.493,0.537-0.95,1.157-1.413,1.822c-0.537,0.778-1.079,1.63-1.63,2.533c-0.243-0.19-0.494-0.37-0.757-0.534
	c-0.632-0.396-1.325-0.696-2.045-0.888c-0.717-0.204-1.462-0.305-2.204-0.305c-1.489-0.024-2.955,0.314-4.324,0.841
	c-2.75,1.062-5.154,2.792-7.32,4.686c-2.162,1.912-4.117,4.01-5.913,6.187c-0.442,0.55-0.882,1.099-1.321,1.645
	c-0.426,0.56-0.851,1.117-1.275,1.673c-0.769,1.165-1.486,2.345-2.181,3.527c-2.772,4.73-5.109,9.502-6.965,14.173
	c-1.853,4.67-3.206,9.255-3.906,13.591c-0.351,2.167-0.537,4.268-0.551,6.271c0.009,0.501,0.018,0.995,0.026,1.482
	c0.023,0.487,0.067,0.967,0.099,1.44c0.057,0.948,0.265,1.868,0.567,2.711c0.601,1.691,1.531,3.145,2.668,4.212
	c1.129,1.073,2.506,1.712,3.808,1.805c0.65,0.047,1.266-0.031,1.827-0.163c0.276-0.084,0.549-0.149,0.796-0.26
	c0.125-0.05,0.248-0.1,0.369-0.148c0.116-0.059,0.23-0.117,0.341-0.174c0.889-0.466,1.566-0.994,2.081-1.45
	c0.512-0.46,0.883-0.837,1.118-1.103c0.24-0.262,0.364-0.397,0.364-0.397l-0.003-0.12l-0.122,0.001l-0.006,0.006
	c0,0-0.128,0.129-0.376,0.379c-0.242,0.254-0.624,0.612-1.144,1.043c-0.522,0.428-1.204,0.915-2.073,1.326
	c-0.866,0.405-1.946,0.714-3.135,0.594c-1.184-0.124-2.417-0.74-3.439-1.77c-1.026-1.022-1.864-2.425-2.376-4.025
	c-0.131-0.398-0.229-0.815-0.311-1.232c-0.029-0.209-0.07-0.389-0.089-0.634c-0.01-0.107-0.029-0.253-0.032-0.328l-0.015-0.345
	c-0.017-0.461-0.047-0.928-0.055-1.402c0.005-0.475,0.011-0.956,0.017-1.443c0.07-1.949,0.275-3.997,0.661-6.11
	c0.763-4.23,2.174-8.714,4.085-13.282c1.911-4.57,4.326-9.228,7.066-13.885c0.69-1.155,1.414-2.327,2.157-3.437
	c0.405-0.522,0.812-1.047,1.219-1.572c0.434-0.533,0.869-1.068,1.306-1.604c1.772-2.119,3.69-4.146,5.777-5.966
	c2.086-1.803,4.383-3.41,6.849-4.337c2.447-0.955,5.087-1.006,7.076,0.263c0.266,0.166,0.525,0.348,0.772,0.547
	c-0.105,0.179-0.208,0.352-0.314,0.534c-0.985,1.684-1.991,3.541-3.047,5.531c-2.106,3.986-4.329,8.567-6.521,13.665
	c-2.185,5.1-4.383,10.701-6.382,16.739c-0.991,3.021-1.987,6.133-2.77,9.388c-0.099,0.404-0.182,0.827-0.235,1.248
	c-0.038,0.426-0.052,0.848-0.054,1.273c-0.001,0.546,0.031,1.093,0.079,1.641c-0.838,0.878-1.68,1.72-2.526,2.513
	c-1.57,1.469-3.162,2.791-4.771,3.806c-0.402,0.249-0.807,0.476-1.211,0.667c-0.207,0.097-0.4,0.176-0.583,0.246l-0.337,0.108
	c-0.065,0.019-0.164,0.045-0.243,0.058c-0.654,0.127-1.277-0.213-1.767-0.817c-0.484-0.594-0.828-1.348-1.038-2.075
	c-0.051-0.175-0.095-0.378-0.115-0.511c-0.02-0.173-0.02-0.387-0.031-0.576c-0.025-0.388-0.025-0.772-0.02-1.15
	c0.017-1.511,0.152-2.912,0.301-4.171c0.318-2.519,0.666-4.496,0.928-5.837c0.263-1.342,0.43-2.052,0.43-2.052l-0.061-0.106
	l-0.106,0.06c0,0-0.195,0.706-0.511,2.039c-0.308,1.335-0.756,3.296-1.141,5.826c-0.188,1.265-0.367,2.674-0.43,4.218
	c-0.017,0.386-0.028,0.78-0.015,1.183c0.005,0.202-0.001,0.403,0.015,0.612c0.023,0.216,0.064,0.418,0.115,0.624
	c0.21,0.815,0.547,1.637,1.096,2.365c0.278,0.358,0.617,0.693,1.041,0.919c0.418,0.234,0.926,0.323,1.414,0.259
	c0.961-0.162,1.856-0.619,2.724-1.111c1.732-1.022,3.372-2.359,5.005-3.822c0.673-0.608,1.342-1.248,2.01-1.906
	c0.125,0.696,0.302,1.388,0.578,2.052c0.335,0.801,0.837,1.59,1.611,2.083c0.776,0.498,1.755,0.563,2.625,0.372
	c0.88-0.189,1.695-0.576,2.462-1.022c1.534-0.907,2.897-2.073,4.202-3.293c2.613-2.43,5.215-4.941,7.763-7.542l0.963-0.964
	c0.289-0.267,0.589-0.572,0.903-0.726c-0.027,0.051-0.05,0.101-0.081,0.152c-0.114,0.191-0.24,0.381-0.367,0.569l-0.779,1.128
	c-1.049,1.503-2.092,3.024-3.027,4.62c-0.466,0.799-0.906,1.616-1.286,2.466c-0.375,0.85-0.708,1.734-0.843,2.678
	c-0.065,0.47-0.072,0.961,0.048,1.442c0.14,0.482,0.37,0.905,0.724,1.271c0.351,0.367,0.903,0.552,1.402,0.487
	c0.502-0.053,0.95-0.258,1.363-0.489c1.636-0.972,2.875-2.392,4.271-3.566c0.341-0.291,0.736-0.529,1.109-0.813
	c0.374-0.275,0.74-0.56,1.101-0.849l1.076-0.865c0.09-0.07,0.18-0.138,0.27-0.2c0.017-0.012,0.036-0.025,0.056-0.038l-0.122,0.282
	c-0.382,0.839-0.644,1.832-0.384,2.785c0.125,0.47,0.365,0.903,0.673,1.268c0.151,0.186,0.323,0.35,0.499,0.509
	c0.096,0.077,0.172,0.145,0.286,0.229c0.032,0.024,0.136,0.082,0.207,0.092c0.078,0.02,0.157,0.017,0.231,0.008
	c0.291-0.056,0.485-0.215,0.673-0.358c0.185-0.148,0.354-0.305,0.525-0.458c0.337-0.306,0.674-0.606,1.047-0.834
	c0.189-0.117,0.375-0.201,0.59-0.275l0.642-0.243c0.423-0.159,0.849-0.311,1.276-0.38c0.42-0.073,0.876-0.02,0.986,0.358
	c0.08,0.231,0.073,0.5,0.034,0.773c-0.802,1.516-1.582,3.097-2.33,4.751c-2.321,5.086-4.45,10.771-6.358,16.873
	c-0.473,1.534-0.935,3.093-1.321,4.734c-0.096,0.412-0.185,0.829-0.263,1.262c-0.074,0.441-0.149,0.869-0.161,1.427
	c-0.001,0.145-0.001,0.294,0.032,0.51c0.006,0.048,0.018,0.109,0.035,0.179c0.013,0.058,0.036,0.139,0.072,0.232
	c0.023,0.07,0.096,0.215,0.168,0.322c0.11,0.151,0.229,0.296,0.484,0.442c0.221,0.133,0.559,0.196,0.772,0.172
	c0.253-0.018,0.386-0.078,0.517-0.132c0.113-0.053,0.211-0.113,0.269-0.156c0.077-0.053,0.122-0.092,0.171-0.135
	c0.184-0.165,0.282-0.29,0.379-0.412c0.352-0.47,0.557-0.867,0.77-1.283c0.818-1.638,1.301-3.329,1.776-4.974
	c0.471-1.656,0.915-3.323,1.356-5.002c0.884-3.359,1.753-6.772,2.687-10.196c0.465-1.699,0.959-3.45,1.488-5.068
	c0.12-0.394,0.29-0.83,0.442-1.252l0.116-0.309c0.045-0.117,0.089-0.234,0.13-0.359c0.085-0.242,0.163-0.496,0.232-0.768
	c0.068-0.272,0.129-0.56,0.158-0.902c0.015-0.264,0.031-0.559-0.049-0.93c1.379-2.597,2.82-4.976,4.316-7.08
	c1.3-1.834,2.644-3.462,4.003-4.852c0.675-0.698,1.359-1.337,2.036-1.91c0.686-0.562,1.395-1.033,2.102-1.41
	c0.707-0.372,1.421-0.665,2.118-0.753c0.344-0.039,0.694-0.017,0.957,0.144c0.268,0.155,0.396,0.455,0.429,0.749
	c0.059,0.6-0.108,1.171-0.269,1.667c-0.169,0.5-0.364,0.94-0.547,1.33c-0.371,0.779-0.702,1.354-0.924,1.741
	c-0.227,0.385-0.344,0.583-0.344,0.583l0.029,0.118l0.119-0.028c0,0,0.124-0.196,0.364-0.575c0.235-0.383,0.586-0.951,0.986-1.729
	c0.198-0.39,0.411-0.832,0.601-1.344c0.179-0.514,0.383-1.089,0.335-1.806C159.967,48.432,159.803,47.987,159.413,47.747z
	 M110.015,59.19c-0.005-0.385,0.004-0.793,0.029-1.133c0.043-0.359,0.094-0.659,0.189-1.077c0.345-1.565,0.771-3.157,1.216-4.707
	c0.218-0.778,0.444-1.549,0.679-2.314c0.229-0.766,0.46-1.526,0.704-2.277c1.899-6.026,4.005-11.632,6.105-16.738
	c1.049-2.554,2.122-4.974,3.162-7.266c0.505-1.155,1.029-2.26,1.543-3.333c0.508-1.075,1.001-2.122,1.521-3.124
	c0.509-1.002,1.001-1.972,1.476-2.909c0.487-0.93,0.965-1.822,1.432-2.673c0.082-0.149,0.162-0.289,0.242-0.435
	c0.058,0.057,0.118,0.112,0.173,0.172c0.411,0.429,0.805,0.954,1.09,1.42l0.262,0.471l0.066,0.12c0,0,0.005,0.01,0.011,0.021
	l0.019,0.041l0.091,0.192c0.113,0.264,0.22,0.537,0.3,0.829c0.171,0.577,0.269,1.204,0.324,1.848
	c0.105,1.292,0.012,2.651-0.18,4.006c-0.194,1.364-0.498,2.701-0.841,4.108c-1.3,5.455-3.366,10.646-5.858,15.412
	c-2.51,4.758-5.335,9.168-8.345,13.098c-0.753,0.982-1.518,1.933-2.294,2.847c-0.387,0.457-0.778,0.906-1.17,1.337l-0.29,0.314
	l-0.082,0.09l-0.036,0.042l-0.071,0.084l-0.142,0.168c-0.191,0.222-0.381,0.443-0.571,0.663c-0.248,0.284-0.499,0.56-0.749,0.837
	C110.02,59.279,110.015,59.235,110.015,59.19z M129.998,52.974l-0.001,0.002C129.996,52.965,130.008,52.97,129.998,52.974z
	 M137.023,83.342c-0.431,1.678-0.864,3.341-1.321,4.979c-0.467,1.633-0.916,3.262-1.636,4.753c-0.18,0.37-0.374,0.737-0.61,1.056
	c-0.06,0.078-0.123,0.153-0.189,0.213c-0.064,0.065-0.145,0.084-0.123,0.077c-0.008,0.008-0.053-0.092-0.062-0.177
	c-0.015-0.09-0.019-0.189-0.019-0.287c0.019-0.8,0.193-1.611,0.358-2.402c0.35-1.586,0.784-3.137,1.231-4.659
	c1.637-5.509,3.456-10.665,5.439-15.357c-0.145,0.527-0.289,1.054-0.43,1.58C138.74,76.566,137.888,79.986,137.023,83.342z"/>
</svg>
